Spatial Ecology and Macroecology
…
We are ready to do a download. Whoop!

To do this, we will use occ_search().

occ_search(taxonKey=mammaliaTaxonKey,
           country='CZ') 

Records found [5120] 
Records returned [500] 
No. unique hierarchies [43] 
No. media records [500] 
No. facets [0] 
Args [limit=500, offset=0, taxonKey=359, country=CZ, fields=all] 
# A tibble: 500 × 92
   key    scien…¹ decim…² decim…³ issues datas…⁴ publi…⁵ insta…⁶ publi…⁷ proto…⁸
   <chr>  <chr>     <dbl>   <dbl> <chr>  <chr>   <chr>   <chr>   <chr>   <chr>  
 1 34557… Myodes…    49.8    16.0 cdrou… 50c950… 28eb1a… 997448… US      DWC_AR…
 2 34558… Sus sc…    49.2    16.5 cdrou… 50c950… 28eb1a… 997448… US      DWC_AR…
 3 34558… Myotis…    50.2    16.8 cdrou… 50c950… 28eb1a… 997448… US      DWC_AR…
 4 34558… Lepus …    50.3    15.3 cdrou… 50c950… 28eb1a… 997448… US      DWC_AR…
 5 34558… Capreo…    50.3    15.3 cdrou… 50c950… 28eb1a… 997448… US      DWC_AR…
 6 34561… Cervus…    50.3    14.6 cdrou… 50c950… 28eb1a… 997448… US      DWC_AR…
 7 34562… Ovis a…    49.2    16.5 cdrou… 50c950… 28eb1a… 997448… US      DWC_AR…
 8 34562… Ovis a…    49.2    16.5 cdrou… 50c950… 28eb1a… 997448… US      DWC_AR…
 9 34562… Capreo…    49.2    17.4 cdrou… 50c950… 28eb1a… 997448… US      DWC_AR…
10 34563… Ovis a…    50.3    14.6 cdrou… 50c950… 28eb1a… 997448… US      DWC_AR…
# … with 490 more rows, 82 more variables: lastCrawled <chr>, lastParsed <chr>,
#   crawlId <int>, hostingOrganizationKey <chr>, basisOfRecord <chr>,
#   occurrenceStatus <chr>, taxonKey <int>, kingdomKey <int>, phylumKey <int>,
#   classKey <int>, orderKey <int>, familyKey <int>, genusKey <int>,
#   speciesKey <int>, acceptedTaxonKey <int>, acceptedScientificName <chr>,
#   kingdom <chr>, phylum <chr>, order <chr>, family <chr>, genus <chr>,
#   species <chr>, genericName <chr>, specificEpithet <chr>, taxonRank <chr>, …
…
Automated flagging of common spatial and temporal errors in biological and palaeontological collection data.

5. Data quality

We will check the following fields as an example:

coordinateUncertaintyInMeters: we want them to be smaller than 10km

mammalsCZ %>% 
  filter(coordinateUncertaintyInMeters > 1000) %>% 
  select(scientificName, coordinateUncertaintyInMeters, stateProvince)

# A tibble: 506 × 3
   scientificName                            coordinateUncertaintyInMe…¹ state…²
   <chr>                                                           <dbl> <chr>  
 1 Myodes glareolus (Schreber, 1780)                                1953 Pardub…
 2 Sorex araneus Linnaeus, 1758                                     1953 Pardub…
 3 Lutra lutra (Linnaeus, 1758)                                    26550 Jihomo…
 4 Sciurus vulgaris Linnaeus, 1758                                  1120 Jihoče…
 5 Capreolus capreolus (Linnaeus, 1758)                             1262 Jihoče…
 6 Lepus europaeus Pallas, 1778                                     2658 Středo…
 7 Capreolus capreolus (Linnaeus, 1758)                             2658 Středo…
 8 Capreolus capreolus (Linnaeus, 1758)                             5229 Jihoče…
 9 Barbastella barbastellus (Schreber, 1774)                       26454 Středo…
10 Meles meles (Linnaeus, 1758)                                     2299 Ústecký
# … with 496 more rows, and abbreviated variable names
#   ¹​coordinateUncertaintyInMeters, ²​stateProvince
…
